{
    "name": "m21-cerutti.BaseUtilityScripting.Editor",
    "rootNamespace": "",
    "references": [
        "m21-cerutti.BaseUtilityScripting",
        "Unity.InputSystem"
    ],
    "includePlatforms": [
        "Editor"
    ],
    "excludePlatforms": [],
    "allowUnsafeCode": false,
    "overrideReferences": false,
    "precompiledReferences": [],
    "autoReferenced": true,
    "defineConstraints": [],
    "versionDefines": [],
    "noEngineReferences": false
}