{
  "name": "Editor.Tests",
  "rootNamespace": "",
  "references": [
    "UnityEngine.TestRunner",
    "UnityEditor.TestRunner",
    "Scripts",
    "Scripts.Editor",
    "m21-cerutti.BaseUtilityScripting",
    "m21-cerutti.BaseUtilityScripting.Editor"
  ],
  "includePlatforms": [
    "Editor"
  ],
  "excludePlatforms": [],
  "allowUnsafeCode": false,
  "overrideReferences": true,
  "precompiledReferences": [
    "nunit.framework.dll"
  ],
  "autoReferenced": false,
  "defineConstraints": [
    "UNITY_INCLUDE_TESTS"
  ],
  "versionDefines": [],
  "noEngineReferences": false
}